<?xml version="1.0" encoding="UTF-8"?>
<svg width="16px" height="36px" viewBox="0 0 16 36" version="1.1" xmlns="http://www.w3.org/2000/svg" xmlns:xlink="http://www.w3.org/1999/xlink">
    <!-- Generator: Sketch 50.2 (55047) - http://www.bohemiancoding.com/sketch -->
    <title>Arrow / White / Left</title>
    <desc>Created with Sketch.</desc>
    <defs></defs>
    <g id="Arrow-/-White-/-Left" stroke="none" stroke-width="1" fill="none" fill-rule="evenodd">
        <path d="M3.7209202,17.9994202 L15.1699202,2.3864202 C15.6589202,1.7184202 15.5149202,0.779420203 14.8469202,0.290420203 C14.1819202,-0.199579797 13.2409202,-0.0555797966 12.7499202,0.612420203 L-7.97966059e-05,17.9994202 L12.7499202,35.3864202 C13.0439202,35.7874202 13.4999202,35.9994202 13.9609202,35.9994202 C14.2689202,35.9994202 14.5799202,35.9054202 14.8469202,35.7084202 C15.5149202,35.2194202 15.6589202,34.2804202 15.1699202,33.6124202 L3.7209202,17.9994202 Z" id="Fill-1" fill="#FFFFFF"></path>
    </g>
</svg>