<?xml version="1.0" encoding="UTF-8"?>
<svg width="201px" height="171px" viewBox="0 0 201 171" version="1.1" xmlns="http://www.w3.org/2000/svg" xmlns:xlink="http://www.w3.org/1999/xlink">
    <!-- Generator: Sketch 50.2 (55047) - http://www.bohemiancoding.com/sketch -->
    <title>Icon / Champagne</title>
    <desc>Created with Sketch.</desc>
    <defs></defs>
    <g id="Icon-/-Champagne" stroke="none" stroke-width="1" fill="none" fill-rule="evenodd">
        <rect id="Rectangle-3-Copy-6" stroke="#7FA5D0" x="0.5" y="0.5" width="200" height="170" rx="9"></rect>
        <text id="Champagne" font-family="PernodRegular" font-size="26" font-weight="normal" letter-spacing="1" fill="#7FA5D0">
            <tspan x="12.344" y="139">Champagne</tspan>
        </text>
        <g id="Group-9" transform="translate(88.000000, 39.000000)">
            <g id="Group-9">
                <path d="M2.1054,63.2237 L17.8954,63.2237" id="Group-9" stroke="#7FA5D0" stroke-width="2" stroke-linecap="round" stroke-linejoin="round"></path>
                <path d="M9.9999,37.4854 L9.9999,63.0004" id="Group-9" stroke="#7FA5D0" stroke-width="2"></path>
                <path d="M1.8622,14.7832 L17.8622,14.7832" id="Group-9" stroke="#7FA5D0" stroke-width="2"></path>
                <path d="M2.9999,0 L-0.0001,28 C-0.0001,33.522 4.4769,38 9.9999,38 C15.5229,38 19.9999,33.522 19.9999,28 L16.9999,0 L2.9999,0 Z" id="Group-9" stroke="#7FA5D0" stroke-width="2" stroke-linejoin="round"></path>
                <path d="M14.1933,9.5684 C14.1933,10.1084 13.7563,10.5464 13.2163,10.5464 C12.6763,10.5464 12.2393,10.1084 12.2393,9.5684 C12.2393,9.0294 12.6763,8.5914 13.2163,8.5914 C13.7563,8.5914 14.1933,9.0294 14.1933,9.5684" id="Fill-7" fill="#7FA5D0"></path>
                <path d="M5.5062,17.8028 C5.5062,18.3418 5.0692,18.7798 4.5292,18.7798 C3.9902,18.7798 3.5522,18.3418 3.5522,17.8028 C3.5522,17.2628 3.9902,16.8248 4.5292,16.8248 C5.0692,16.8248 5.5062,17.2628 5.5062,17.8028" id="Fill-9" fill="#7FA5D0"></path>
                <path d="M10.2313,20.1719 C10.2313,20.7119 9.7943,21.1499 9.2543,21.1499 C8.7143,21.1499 8.2773,20.7119 8.2773,20.1719 C8.2773,19.6329 8.7143,19.1949 9.2543,19.1949 C9.7943,19.1949 10.2313,19.6329 10.2313,20.1719" id="Fill-11" fill="#7FA5D0"></path>
                <path d="M15.9706,17.8028 C15.9706,18.3418 15.5336,18.7798 14.9936,18.7798 C14.4536,18.7798 14.0166,18.3418 14.0166,17.8028 C14.0166,17.2628 14.4536,16.8248 14.9936,16.8248 C15.5336,16.8248 15.9706,17.2628 15.9706,17.8028" id="Fill-13" fill="#7FA5D0"></path>
                <path d="M15.1933,27.3643 C15.1933,27.9043 14.7563,28.3413 14.2163,28.3413 C13.6763,28.3413 13.2393,27.9043 13.2393,27.3643 C13.2393,26.8253 13.6763,26.3873 14.2163,26.3873 C14.7563,26.3873 15.1933,26.8253 15.1933,27.3643" id="Fill-15" fill="#7FA5D0"></path>
            </g>
        </g>
    </g>
</svg>