<?xml version="1.0" encoding="UTF-8"?>
<svg width="152px" height="171px" viewBox="0 0 152 171" version="1.1" xmlns="http://www.w3.org/2000/svg" xmlns:xlink="http://www.w3.org/1999/xlink">
    <!-- Generator: Sketch 50.2 (55047) - http://www.bohemiancoding.com/sketch -->
    <title>Icon / Club</title>
    <desc>Created with Sketch.</desc>
    <defs></defs>
    <g id="Icon-/-Club" stroke="none" stroke-width="1" fill="none" fill-rule="evenodd">
        <rect stroke="white" x="0.5" y="0.5" width="151" height="170" rx="9"></rect>
        <text  font-family="PernodRegular" font-size="26" font-weight="normal" letter-spacing="1" fill="white">
            <tspan x="40.268" y="142">Club</tspan>
        </text>
        <g transform="translate(36.000000, 37.000000)" stroke="white" stroke-linejoin="round" stroke-width="2">
            <polygon id="Stroke-1" points="0 59 74 59 74 0 0 0"></polygon>
            <path d="M32.1665,29.333 C32.1665,30.714 31.0475,31.833 29.6665,31.833 C28.2865,31.833 27.1665,30.714 27.1665,29.333 C27.1665,27.952 28.2865,26.833 29.6665,26.833 C31.0475,26.833 32.1665,27.952 32.1665,29.333 Z" id="Stroke-3"></path>
            <path d="M53.3335,29.167 C53.3335,42.146 42.8125,52.667 29.8335,52.667 C16.8545,52.667 6.3335,42.146 6.3335,29.167 C6.3335,16.188 16.8545,5.667 29.8335,5.667 C42.8125,5.667 53.3335,16.188 53.3335,29.167 Z" id="Stroke-4"></path>
            <path d="M10,51.5 C10,52.881 8.881,54 7.5,54 C6.119,54 5,52.881 5,51.5 C5,50.119 6.119,49 7.5,49 C8.881,49 10,50.119 10,51.5 Z" id="Stroke-5"></path>
            <path d="M69,51.5 C69,52.881 67.881,54 66.5,54 C65.119,54 64,52.881 64,51.5 C64,50.119 65.119,49 66.5,49 C67.881,49 69,50.119 69,51.5 Z" id="Stroke-6"></path>
            <polygon id="Stroke-7" points="60.666 18 65.666 18 65.666 13 60.666 13"></polygon>
            <path d="M63.1665,8 L63.1665,13" id="Stroke-8" stroke-linecap="round"></path>
            <polyline id="Stroke-9" stroke-linecap="round" points="63.1665 19 63.1665 40 58.9995 44"></polyline>
            <path d="M54.1465,51.8887 L58.3895,47.6467 L58.7425,47.2927 C59.7185,46.3167 59.7185,44.7337 58.7425,43.7577 C57.7665,42.7817 56.1835,42.7817 55.2075,43.7577 L54.8535,44.1117 L50.6105,48.3537 L50.2575,48.7067 C49.2815,49.6837 49.2815,51.2667 50.2575,52.2427 C51.2335,53.2187 52.8165,53.2187 53.7925,52.2427 L54.1465,51.8887 Z" id="Stroke-10"></path>
        </g>
    </g>
</svg>