<?xml version="1.0" encoding="UTF-8"?>
<svg width="24px" height="31px" viewBox="0 0 24 31" version="1.1" xmlns="http://www.w3.org/2000/svg" xmlns:xlink="http://www.w3.org/1999/xlink">
    <!-- Generator: Sketch 50.2 (55047) - http://www.bohemiancoding.com/sketch -->
    <title>Fill 1</title>
    <desc>Created with Sketch.</desc>
    <defs></defs>
    <g id="V2" stroke="none" stroke-width="1" fill="none" fill-rule="evenodd">
        <g id="Pernod-Ricard---06" transform="translate(-54.000000, -515.000000)" fill="#FFFFFF">
            <path d="M63.5165186,540.586583 C64.388699,541.559247 65.2408293,542.509889 66.0009114,543.384369 C66.7591707,542.509889 67.611301,541.561082 68.4825701,540.588418 C70.6953748,538.12097 73.0439736,535.503034 74.648895,533.210849 C75.2777398,532.312511 75.7589428,531.331588 76.0833903,530.299279 C76.4087491,529.262382 76.5773525,528.179604 76.5773525,527.082145 L76.5746184,527.082145 C76.5746184,524.142129 75.3907496,521.481066 73.476874,519.554089 C71.5639098,517.627112 68.9200273,516.436974 66.0009114,516.436974 C63.0799727,516.436974 60.4360902,517.627112 58.523126,519.554089 C56.6101618,521.481066 55.426293,524.142129 55.426293,527.082145 C55.426293,528.192451 55.5903395,529.262382 55.9111415,530.281844 C56.2346776,531.312318 56.7195261,532.294159 57.3547505,533.213602 C58.9587605,535.504869 61.3055366,538.12097 63.5165186,540.586583 M61.6363636,522.688638 C60.5190248,523.812708 59.8282069,525.366218 59.8282069,527.082145 L59.830941,527.082145 C59.8318524,528.799907 60.5208476,530.354335 61.6363636,531.47657 C62.7537024,532.60064 64.2957393,533.297104 66.0009114,533.297104 C67.7042607,533.297104 69.2481203,532.60064 70.3645477,531.47657 C71.4809752,530.351582 72.1727045,528.798072 72.1727045,527.081227 C72.1727045,525.366218 71.4809752,523.812708 70.3645477,522.688638 C69.2481203,521.564568 67.7042607,520.868103 66.0009114,520.868103 C64.2957393,520.868103 62.7527911,521.564568 61.6363636,522.688638 M66.0009114,522.30416 C64.6894509,522.30416 63.502848,522.839125 62.6443381,523.70443 C61.7858282,524.567899 61.2544999,525.763542 61.2544999,527.082145 L61.2517658,527.082145 C61.2517658,528.39983 61.7840055,529.594556 62.6443381,530.461695 C63.502848,531.326082 64.6894509,531.86013 66.0009114,531.86013 C67.3114605,531.86013 68.497152,531.326082 69.3565733,530.461695 C70.2150832,529.596391 70.7464115,528.402583 70.7464115,527.082145 C70.7464115,525.762625 70.2150832,524.567899 69.3565733,523.703512 C68.4980633,522.839125 67.3114605,522.30416 66.0009114,522.30416 M65.4550011,544.93788 C64.5244931,543.843173 63.5092276,542.710845 62.4629756,541.545483 C60.2137161,539.03766 57.8259285,536.375679 56.1872864,534.034861 L56.1854637,534.031191 C55.4663933,532.993376 54.9195717,531.882153 54.5522898,530.71312 C54.1877421,529.554181 54,528.33835 54,527.082145 C54,523.745722 55.3433584,520.724957 57.5151515,518.539214 C59.6869446,516.353472 62.6871725,515 66.0009114,515 C69.3137389,515 72.3139667,516.353472 74.4857599,518.539214 C76.6566416,520.724957 78,523.745722 78,527.082145 L77.9972659,527.082145 C77.9981773,528.336515 77.8095238,529.565192 77.442242,530.731472 C77.0749601,531.899587 76.5281385,533.012646 75.813625,534.034861 C74.1731602,536.376597 71.7862839,539.038578 69.5352016,541.547318 C68.489861,542.713598 67.4727728,543.846844 66.540442,544.943386 C66.2852586,545.243443 65.8359535,545.278312 65.5379357,545.0223 C65.5078606,544.996607 65.4805195,544.967243 65.4550011,544.93788" id="Fill-1"></path>
        </g>
    </g>
</svg>