<?xml version="1.0" encoding="UTF-8"?>
<svg width="201px" height="171px" viewBox="0 0 201 171" version="1.1" xmlns="http://www.w3.org/2000/svg" xmlns:xlink="http://www.w3.org/1999/xlink">
    <!-- Generator: Sketch 50.2 (55047) - http://www.bohemiancoding.com/sketch -->
    <title>Icon / Summer</title>
    <desc>Created with Sketch.</desc>
    <defs></defs>
    <g id="Icon-/-Summer" stroke="none" stroke-width="1" fill="none" fill-rule="evenodd">
        <rect stroke="white" x="0.5" y="0.5" width="200" height="170" rx="9"></rect>
        <text font-family="PernodRegular" font-size="26" font-weight="normal" letter-spacing="1" fill="white">
            <tspan x="40.344" y="142">Summer</tspan>
        </text>
        <g transform="translate(62.000000, 27.000000)" stroke="white" stroke-linejoin="round" stroke-width="2">
            <path d="M58.5185,39.5 C58.5185,50.002 50.0025,58.519 39.4995,58.519 C28.9965,58.519 20.4815,50.002 20.4815,39.5 C20.4815,28.998 28.9965,20.481 39.4995,20.481 C50.0025,20.481 58.5185,28.998 58.5185,39.5 Z" id="Stroke-1"></path>
            <path d="M39.5,0 L39.5,11.704" id="Stroke-3" stroke-linecap="round"></path>
            <path d="M39.5,67.2959 L39.5,78.9999" id="Stroke-5" stroke-linecap="round"></path>
            <path d="M11.5693,11.5693 L19.8443,19.8453" id="Stroke-7" stroke-linecap="round"></path>
            <path d="M59.1557,59.1543 L67.4307,67.4303" id="Stroke-9" stroke-linecap="round"></path>
            <path d="M0,39.5 L11.704,39.5" id="Stroke-11" stroke-linecap="round"></path>
            <path d="M67.2964,39.5 L79.0004,39.5" id="Stroke-13" stroke-linecap="round"></path>
            <path d="M11.5693,67.4307 L19.8443,59.1557" id="Stroke-15" stroke-linecap="round"></path>
            <path d="M59.1543,19.8457 L67.4303,11.5697" id="Stroke-17" stroke-linecap="round"></path>
        </g>
    </g>
</svg>