<?xml version="1.0" encoding="utf-8"?>
<!-- Generator: Adobe Illustrator 22.1.0, SVG Export Plug-In . SVG Version: 6.00 Build 0)  -->
<svg version="1.1" id="Layer_1" xmlns="http://www.w3.org/2000/svg" xmlns:xlink="http://www.w3.org/1999/xlink" x="0px" y="0px"
	 viewBox="0 0 430.8 98" style="enable-background:new 0 0 430.8 98;" xml:space="preserve">
<style type="text/css">
	.st0{fill:#7FA5D0;}
	.st1{fill:#023466;}
</style>
<title>Group</title>
<desc>Created with Sketch.</desc>
<g>
	<path class="st0" d="M193.8,28.9c5.2,2,8.7,5.3,8.7,5.3c0-1.6,0.5-3.3,1.1-4.7c0,0-1.7-3.1-6.6-6.5c-5.3-3.6-11.3-4.6-11.3-4.6
		c-1.2,2.7-2.1,5.5-2.6,8.5C183,26.9,187.4,26.5,193.8,28.9z"/>
	<path class="st0" d="M197.5,18.4c5,4.8,6.8,9.6,6.8,9.6c0.9-1.5,2.1-2.7,3.6-3.7c0,0-1.8-5.8-4.8-10.1c-3-4.3-7.8-7.8-7.8-7.8
		c-2.4,1.8-4.5,4-6.2,6.4C189,12.7,193.9,14.8,197.5,18.4z"/>
	<path class="st0" d="M206.3,12.4c2.2,5.7,2.8,11.2,2.8,11.2c1.5-0.8,3.4-1.4,5.1-1.5c0,0,0.1-5.5-1.1-11.2C211.7,4.1,210,0,210,0
		c-2.9,0.5-5.8,1.3-8.4,2.5C201.7,2.5,204.7,8.4,206.3,12.4z"/>
	<path class="st0" d="M236,28.9c-5.2,2-8.7,5.3-8.7,5.3c0-1.6-0.5-3.3-1.1-4.7c0,0,1.7-3.1,6.6-6.5c5.3-3.6,11.3-4.6,11.3-4.6
		c1.2,2.7,2.1,5.5,2.6,8.5C246.7,26.9,242.3,26.5,236,28.9z"/>
	<path class="st0" d="M232.2,18.4c-5,4.8-6.8,9.6-6.8,9.6c-0.9-1.5-2.1-2.7-3.6-3.7c0,0,1.8-5.8,4.8-10.1c3-4.3,7.8-7.8,7.8-7.8
		c2.4,1.8,4.5,4,6.2,6.4C240.8,12.7,235.9,14.8,232.2,18.4z"/>
	<path class="st0" d="M223.5,12.4c-2.2,5.7-2.8,11.2-2.8,11.2c-1.5-0.8-3.4-1.4-5.1-1.5c0,0-0.1-5.5,1.1-11.2
		c1.4-6.7,3.1-10.8,3.1-10.8c2.9,0.5,5.8,1.3,8.4,2.5C228.1,2.5,225,8.4,223.5,12.4z"/>
</g>
<g>
	<path class="st1" d="M198.1,48.4c6.2-3,12.5-2.3,12.5-2.3c-2.2-0.8-4.1-2.3-5.6-4.1c0,0-5.6-0.7-9.8,0.2c-6.5,1.3-9.3,3.5-9.3,3.5
		c1.3,2.7,3,5.2,5,7.4C190.9,53.1,193.5,50.6,198.1,48.4z"/>
	<path class="st1" d="M193.3,39.1c6.3-0.3,10.7,1.4,10.7,1.4c-0.8-1.4-1.3-3-1.5-4.7c0,0-5-2.9-9.7-3.5c-6.4-0.9-10.2,0.4-10.2,0.4
		c0.1,3,0.6,6,1.5,8.7C184.1,41.4,188.3,39.3,193.3,39.1z"/>
	<path class="st1" d="M214.9,53.3c9.1,0,13,7.8,13,7.8c2.8-1.3,5.4-2.9,7.8-4.9c0,0-7.7-9.6-20.8-9.6c-13.1,0-20.8,9.6-20.8,9.6
		c2.3,2,4.9,3.6,7.8,4.9C201.9,61.1,205.8,53.3,214.9,53.3z"/>
	<path class="st1" d="M231.6,48.4c-6.2-3-12.5-2.3-12.5-2.3c2.2-0.8,4.1-2.3,5.6-4.1c0,0,5.6-0.7,9.8,0.2c6.5,1.3,9.3,3.5,9.3,3.5
		c-1.3,2.7-3,5.2-5,7.4C238.9,53.1,236.2,50.6,231.6,48.4z"/>
	<path class="st1" d="M236.5,39.1c-6.3-0.3-10.7,1.4-10.7,1.4c0.8-1.4,1.3-3,1.5-4.7c0,0,5-2.9,9.7-3.5c6.4-0.9,10.2,0.4,10.2,0.4
		c-0.1,3-0.6,6-1.5,8.7C245.6,41.4,241.5,39.3,236.5,39.1z"/>
</g>
<g>
	<path class="st1" d="M6.3,94.9h3.3v2.6H0v-2.6h3.3V73.1H0v-2.6h11.1c6.2,0,10.3,2.7,10.3,8.5c0,5.8-4.2,8.5-10.3,8.5H6.3
		C6.3,87.4,6.3,94.9,6.3,94.9z M6.3,73.2v11.5h4.8c5.1,0,7.3-2,7.3-5.7c0-3.7-2.2-5.7-7.3-5.7L6.3,73.2L6.3,73.2z"/>
	<path class="st1" d="M41.7,92c-0.9,3.4-4,5.9-8.7,5.9c-5.8,0-9.4-3.7-9.4-10.1c0-6.1,3.7-10.1,9.4-10.1c6.1,0,10,4.7,9.2,11.6H26.6
		c0.2,3,2.3,6,6.4,6c2.7,0,4.7-1.1,5.7-3.3C38.7,92,41.7,92,41.7,92z M39.4,86.8c0-3.7-2.7-6.5-6.4-6.5s-6.5,2.8-6.4,6.5
		C26.6,86.8,39.4,86.8,39.4,86.8z"/>
	<path class="st1" d="M52.2,95h3.1v2.5h-9V95h3.1V80.7h-3.1v-2.5H52V81c1.1-2.1,4-4,7.8-2.7V81c-4.6-1.3-7.6,1.2-7.6,5.7
		C52.2,86.7,52.2,95,52.2,95z"/>
	<path class="st1" d="M82.4,95h3.1v2.5h-9V95h3.1v-8.2c0-4.6-2.7-6.5-5.7-6.5c-3,0-5.5,2.1-5.5,6.6v8h3.1v2.5h-9V95h3.1V80.7h-3.1
		v-2.5h5.7V81c1-1.6,3.3-3.2,6.3-3.2c4.3,0,8,2.4,8,9.1L82.4,95L82.4,95z"/>
	<path class="st1" d="M97.4,77.8c5.9,0,9.4,4.3,9.4,10.1c0,5.8-3.5,10.1-9.4,10.1c-5.9,0-9.4-4.3-9.4-10.1
		C88,82,91.5,77.8,97.4,77.8z M97.4,95.4c3.8,0,6.6-2.7,6.6-7.5c0-4.8-2.8-7.5-6.6-7.5s-6.6,2.7-6.6,7.5
		C90.9,92.7,93.7,95.4,97.4,95.4z"/>
	<path class="st1" d="M128.9,95h3.1v2.5h-5.8v-2.8c-1.1,1.7-3.7,3.2-6.7,3.2c-5.5,0-9.1-4.3-9.1-10.1c0-5.8,3.6-10.1,9.1-10.1
		c2.9,0,5.4,1.3,6.6,3.2v-8H123v-2.5h5.9C128.9,70.5,128.9,95,128.9,95z M119.7,80.4c-3.6,0-6.5,2.6-6.5,7.5c0,4.9,2.9,7.5,6.5,7.5
		c3.6,0,6.5-2.6,6.5-7.5C126.2,83,123.3,80.4,119.7,80.4z"/>
	<path class="st1" d="M144.9,70.5h12.7c5.1,0,8.8,2.7,8.8,7.8c0,4.3-2.7,6.9-6.7,7.6l4.4,9h3.5v2.7h-5.6L156.5,86h-5.2v8.9h3v2.6
		h-9.3v-2.6h3.3V73.1h-3.3L144.9,70.5L144.9,70.5z M151.3,73.2v10h6.3c4.1,0,5.8-2,5.8-5s-1.7-5-5.8-5
		C157.6,73.2,151.3,73.2,151.3,73.2z"/>
	<path class="st1" d="M177.2,95h3.1v2.5h-9V95h3.1V80.7h-3.1v-2.5h5.9C177.2,78.2,177.2,95,177.2,95z M173.9,74.1h3.3v-3.6h-3.3
		V74.1z"/>
	<path class="st1" d="M201.7,90.5c-1.1,4.4-4.1,7.5-9.4,7.5c-5.9,0-9.4-4.3-9.4-10.1c0-5.8,3.5-10.1,9.4-10.1c2.8,0,5.3,1.3,6.4,3.2
		v-2.8h2.8v7.1h-3.1c-0.9-2.6-2.6-4.9-6.1-4.9c-3.8,0-6.6,2.7-6.6,7.5c0,4.8,2.8,7.5,6.6,7.5c3.3,0,5.5-2,6.4-4.9L201.7,90.5
		L201.7,90.5z"/>
	<path class="st1" d="M220.9,78.2h5.8v2.5h-3.1V95h3.1v2.5h-5.8v-2.8c-1.2,1.9-3.7,3.2-6.6,3.2c-5.5,0-9.1-4.3-9.1-10.1
		c0-5.8,3.6-10.1,9.1-10.1c2.9,0,5.4,1.3,6.6,3.2C220.9,81,220.9,78.2,220.9,78.2z M214.5,80.4c-3.6,0-6.5,2.6-6.5,7.5
		s2.9,7.5,6.5,7.5c3.6,0,6.5-2.6,6.5-7.5S218.1,80.4,214.5,80.4z"/>
	<path class="st1" d="M236.8,95h3.1v2.5h-9V95h3.1V80.7h-3.1v-2.5h5.7V81c1.1-2.1,4-4,7.8-2.7V81c-4.6-1.3-7.6,1.2-7.6,5.7L236.8,95
		L236.8,95z"/>
	<path class="st1" d="M264.5,95h3.1v2.5h-5.8v-2.8c-1.1,1.7-3.7,3.2-6.7,3.2c-5.5,0-9.1-4.3-9.1-10.1c0-5.8,3.6-10.1,9.1-10.1
		c2.9,0,5.4,1.3,6.6,3.2v-8h-3.1v-2.5h6C264.5,70.5,264.5,95,264.5,95z M255.2,80.4c-3.6,0-6.5,2.6-6.5,7.5c0,4.9,2.9,7.5,6.5,7.5
		s6.5-2.6,6.5-7.5C261.7,83,258.8,80.4,255.2,80.4z"/>
	<path class="st1" d="M289.3,85c-5.3-0.9-8-2.4-8-7.6c0-4.1,3.4-7.5,9.3-7.5c3.5,0,6.1,1.6,7.3,3.5v-3h2.5v7.6h-3.2
		c-0.6-3.2-2.9-5.3-6.6-5.3c-4,0-6.5,1.9-6.5,4.8c0,2.6,1.3,3.7,6.3,4.7l2.5,0.5c5.5,1.1,8,3.2,8,7.5c0,4-3.2,7.7-9.1,7.7
		c-3.3,0-6.5-1-7.8-3.6v3.1h-2.6l-0.1-8h2.9c0.8,3.3,3.1,5.7,7.3,5.7c4.3,0,6.5-2.2,6.5-4.8c0-2.6-1.4-4-6.3-4.9
		C291.7,85.5,289.3,85,289.3,85z"/>
	<path class="st1" d="M331.6,80.7h-2.7v-2.5h8.2v2.5h-2.4l-5.9,16.8h-4.1l-4.2-15.8l-4.2,15.8h-4.1l-5.9-16.8h-2.4v-2.5h8.2v2.5
		h-2.7l4.8,13.8l4.4-16.3h3.9l4.4,16.3L331.6,80.7L331.6,80.7z"/>
	<path class="st1" d="M356.4,92c-0.9,3.4-4,5.9-8.7,5.9c-5.8,0-9.4-3.7-9.4-10.1c0-6.1,3.7-10.1,9.4-10.1c6.1,0,10,4.7,9.2,11.6
		h-15.6c0.3,3,2.3,6,6.4,6c2.7,0,4.7-1.1,5.7-3.3C353.4,92,356.4,92,356.4,92z M354.1,86.8c0-3.7-2.7-6.5-6.4-6.5
		c-3.7,0-6.5,2.8-6.4,6.5H354.1z"/>
	<path class="st1" d="M379.1,95h3.1v2.5h-5.8v-2.8c-1.1,1.7-3.7,3.2-6.7,3.2c-5.5,0-9.1-4.3-9.1-10.1c0-5.8,3.6-10.1,9.1-10.1
		c2.9,0,5.4,1.3,6.6,3.2v-8h-3.1v-2.5h6C379.1,70.5,379.1,95,379.1,95z M369.9,80.4c-3.6,0-6.5,2.6-6.5,7.5c0,4.9,2.9,7.5,6.5,7.5
		c3.6,0,6.5-2.6,6.5-7.5C376.3,83,373.4,80.4,369.9,80.4z"/>
	<path class="st1" d="M403.2,92c-0.9,3.4-4,5.9-8.7,5.9c-5.8,0-9.4-3.7-9.4-10.1c0-6.1,3.7-10.1,9.4-10.1c6.1,0,10,4.7,9.2,11.6
		h-15.6c0.3,3,2.3,6,6.4,6c2.7,0,4.7-1.1,5.7-3.3C400.1,92,403.2,92,403.2,92z M400.9,86.8c0-3.7-2.7-6.5-6.4-6.5
		c-3.7,0-6.5,2.8-6.4,6.5H400.9z"/>
	<path class="st1" d="M427.7,95h3.1v2.5h-9V95h3.1v-8.2c0-4.6-2.7-6.5-5.7-6.5c-3,0-5.5,2.1-5.5,6.6v8h3.1v2.5h-9V95h3.1V80.7h-3.1
		v-2.5h5.7V81c1-1.6,3.3-3.2,6.3-3.2c4.3,0,8,2.4,8,9.1L427.7,95L427.7,95z"/>
</g>
</svg>
