<?xml version="1.0" encoding="utf-8"?>
<!-- Generator: Adobe Illustrator 22.1.0, SVG Export Plug-In . SVG Version: 6.00 Build 0)  -->
<svg version="1.1" id="Layer_1" xmlns="http://www.w3.org/2000/svg" xmlns:xlink="http://www.w3.org/1999/xlink" x="0px" y="0px"
	 viewBox="0 0 488 111" style="enable-background:new 0 0 488 111;" xml:space="preserve">
<style type="text/css">
	.st0{fill:#FFFFFF;}
</style>
<title>Logo / Large</title>
<desc>Created with Sketch.</desc>
<g>
	<path class="st0" d="M219.5,32.7c5.9,2.3,9.8,6,9.8,6c0-1.8,0.5-3.7,1.2-5.3c0,0-1.9-3.5-7.5-7.4c-6-4.1-12.8-5.2-12.8-5.2
		c-1.4,3-2.4,6.3-2.9,9.7C207.3,30.5,212.3,30,219.5,32.7z"/>
	<path class="st0" d="M223.8,20.8c5.6,5.4,7.7,10.9,7.7,10.9c1-1.7,2.4-3.1,4.1-4.2c0,0-2.1-6.6-5.5-11.4c-3.4-4.8-8.9-8.9-8.9-8.9
		c-2.7,2.1-5.1,4.5-7.1,7.2C214.1,14.4,219.6,16.8,223.8,20.8z"/>
	<path class="st0" d="M233.7,14c2.5,6.5,3.2,12.7,3.2,12.7c1.7-0.9,3.8-1.6,5.8-1.7c0,0,0.1-6.3-1.3-12.7C239.8,4.7,237.9,0,237.9,0
		c-3.3,0.5-6.5,1.5-9.5,2.8C228.4,2.8,231.9,9.5,233.7,14z"/>
	<path class="st0" d="M267.3,32.7c-5.9,2.3-9.8,6-9.8,6c0-1.8-0.5-3.7-1.2-5.3c0,0,1.9-3.5,7.5-7.4c6-4.1,12.8-5.2,12.8-5.2
		c1.4,3,2.4,6.3,2.9,9.7C279.5,30.5,274.5,30,267.3,32.7z"/>
	<path class="st0" d="M263.1,20.8c-5.6,5.4-7.7,10.9-7.7,10.9c-1-1.7-2.4-3.1-4.1-4.2c0,0,2.1-6.6,5.5-11.4c3.4-4.8,8.9-8.9,8.9-8.9
		c2.7,2.1,5.1,4.5,7.1,7.2C272.8,14.4,267.2,16.8,263.1,20.8z"/>
	<path class="st0" d="M253.2,14c-2.5,6.5-3.2,12.7-3.2,12.7c-1.7-0.9-3.8-1.6-5.8-1.7c0,0-0.1-6.3,1.3-12.7C247,4.7,248.9,0,248.9,0
		c3.3,0.5,6.5,1.5,9.5,2.8C258.4,2.8,254.9,9.5,253.2,14z"/>
</g>
<g>
	<path class="st0" d="M224.4,54.9c7-3.4,14.1-2.7,14.1-2.7c-2.5-0.9-4.7-2.6-6.3-4.6c0,0-6.3-0.8-11.1,0.2c-7.3,1.5-10.5,4-10.5,4
		c1.5,3.1,3.4,5.9,5.6,8.4C216.2,60.2,219.2,57.3,224.4,54.9z"/>
	<path class="st0" d="M218.9,44.3c7.2-0.3,12.1,1.5,12.1,1.5c-0.9-1.6-1.5-3.4-1.7-5.3c0,0-5.7-3.2-10.9-3.9
		c-7.3-1-11.5,0.4-11.5,0.4c0.1,3.4,0.7,6.8,1.7,9.9C208.6,46.9,213.3,44.5,218.9,44.3z"/>
	<path class="st0" d="M243.4,60.4c10.3,0,14.8,8.9,14.8,8.9c3.2-1.4,6.2-3.3,8.8-5.5c0,0-8.7-10.9-23.6-10.9
		c-14.9,0-23.5,10.9-23.5,10.9c2.6,2.2,5.6,4.1,8.8,5.5C228.7,69.2,233.1,60.4,243.4,60.4z"/>
	<path class="st0" d="M262.4,54.9c-7-3.4-14.1-2.7-14.1-2.7c2.5-0.9,4.7-2.6,6.3-4.6c0,0,6.3-0.8,11.1,0.2c7.3,1.5,10.5,4,10.5,4
		c-1.5,3.1-3.4,5.9-5.6,8.4C270.6,60.2,267.6,57.3,262.4,54.9z"/>
	<path class="st0" d="M267.9,44.3c-7.2-0.3-12.1,1.5-12.1,1.5c0.9-1.6,1.5-3.4,1.7-5.3c0,0,5.7-3.2,10.9-3.9
		c7.3-1,11.5,0.4,11.5,0.4c-0.1,3.4-0.7,6.8-1.7,9.9C278.2,46.9,273.6,44.5,267.9,44.3z"/>
</g>
<g>
	<path class="st0" d="M7.1,107.5h3.8v3H0v-3h3.8V82.9H0v-3h12.6c7,0,11.7,3,11.7,9.6c0,6.5-4.8,9.6-11.7,9.6H7.1
		C7.1,99.1,7.1,107.5,7.1,107.5z M7.1,83v13h5.5c5.8,0,8.3-2.3,8.3-6.5c0-4.2-2.5-6.5-8.3-6.5L7.1,83L7.1,83z"/>
	<path class="st0" d="M47.3,104.2c-1,3.8-4.5,6.7-9.9,6.7c-6.6,0-10.6-4.1-10.6-11.4c0-6.9,4.2-11.4,10.6-11.4
		c6.9,0,11.4,5.3,10.5,13.2H30.2c0.3,3.4,2.6,6.7,7.2,6.7c3,0,5.3-1.3,6.4-3.8C43.8,104.2,47.3,104.2,47.3,104.2z M44.7,98.4
		c0-4.1-3.1-7.3-7.3-7.3s-7.3,3.2-7.3,7.3C30.1,98.4,44.7,98.4,44.7,98.4z"/>
	<path class="st0" d="M59.1,107.7h3.5v2.8H52.4v-2.8h3.5V91.4h-3.5v-2.8h6.5v3.1c1.3-2.4,4.5-4.5,8.8-3.1v3.2
		c-5.2-1.5-8.6,1.4-8.6,6.4C59.1,98.2,59.1,107.7,59.1,107.7z"/>
	<path class="st0" d="M93.3,107.7h3.5v2.8H86.5v-2.8H90v-9.3c0-5.2-3.1-7.3-6.5-7.3c-3.4,0-6.3,2.4-6.3,7.5v9.1h3.5v2.8H70.6v-2.8
		h3.5V91.4h-3.5v-2.8h6.5v3.1c1.2-1.8,3.7-3.6,7.1-3.6c4.8,0,9.1,2.8,9.1,10.3L93.3,107.7L93.3,107.7z"/>
	<path class="st0" d="M110.4,88.1c6.7,0,10.7,4.8,10.7,11.4c0,6.6-3.9,11.4-10.7,11.4s-10.7-4.8-10.7-11.4
		C99.7,92.9,103.6,88.1,110.4,88.1z M110.4,108c4.3,0,7.4-3,7.4-8.5c0-5.5-3.2-8.5-7.4-8.5c-4.3,0-7.4,3-7.4,8.5
		C103,105,106.1,108,110.4,108z"/>
	<path class="st0" d="M146,107.7h3.5v2.8h-6.6v-3.1c-1.3,1.9-4.1,3.6-7.6,3.6c-6.3,0-10.3-4.9-10.3-11.4c0-6.5,4.1-11.4,10.3-11.4
		c3.3,0,6.2,1.5,7.5,3.6v-9h-3.5v-2.8h6.7C146,79.8,146,107.7,146,107.7z M135.6,91.1c-4.1,0-7.4,2.9-7.4,8.5c0,5.6,3.3,8.5,7.4,8.5
		c4.1,0,7.4-2.9,7.4-8.5C142.9,94,139.6,91.1,135.6,91.1z"/>
	<path class="st0" d="M164.2,79.8h14.4c5.8,0,10,3.1,10,8.8c0,4.9-3.1,7.8-7.6,8.6l5,10.2h4v3h-6.4l-6.3-13h-5.9v10.1h3.4v3h-10.6
		v-3h3.8V82.8h-3.8L164.2,79.8L164.2,79.8z M171.3,83v11.4h7.2c4.6,0,6.6-2.3,6.6-5.7c0-3.4-1.9-5.7-6.6-5.7
		C178.5,83,171.3,83,171.3,83z"/>
	<path class="st0" d="M200.7,107.7h3.5v2.8h-10.2v-2.8h3.5V91.4h-3.5v-2.8h6.7C200.7,88.6,200.7,107.7,200.7,107.7z M197,83.9h3.7
		v-4.1H197V83.9z"/>
	<path class="st0" d="M228.5,102.5c-1.3,5-4.6,8.5-10.6,8.5c-6.7,0-10.7-4.8-10.7-11.4c0-6.6,3.9-11.4,10.7-11.4
		c3.1,0,6,1.5,7.3,3.6v-3.1h3.1v8h-3.5c-1-3-3-5.5-6.9-5.5c-4.3,0-7.4,3-7.4,8.5c0,5.5,3.2,8.5,7.4,8.5c3.7,0,6.2-2.2,7.2-5.5
		L228.5,102.5L228.5,102.5z"/>
	<path class="st0" d="M250.2,88.6h6.6v2.8h-3.5v16.2h3.5v2.8h-6.6v-3.1c-1.3,2.2-4.2,3.6-7.5,3.6c-6.3,0-10.3-4.9-10.3-11.4
		c0-6.5,4.1-11.4,10.3-11.4c3.3,0,6.2,1.5,7.5,3.6C250.2,91.7,250.2,88.6,250.2,88.6z M243,91.1c-4.1,0-7.4,2.9-7.4,8.5
		s3.3,8.5,7.4,8.5s7.4-2.9,7.4-8.5S247.1,91.1,243,91.1z"/>
	<path class="st0" d="M268.3,107.7h3.5v2.8h-10.2v-2.8h3.5V91.4h-3.5v-2.8h6.5v3.1c1.3-2.4,4.5-4.5,8.8-3.1v3.2
		c-5.2-1.5-8.6,1.4-8.6,6.4L268.3,107.7L268.3,107.7z"/>
	<path class="st0" d="M299.6,107.7h3.5v2.8h-6.6v-3.1c-1.3,1.9-4.1,3.6-7.6,3.6c-6.3,0-10.3-4.9-10.3-11.4c0-6.5,4.1-11.4,10.3-11.4
		c3.3,0,6.2,1.5,7.5,3.6v-9h-3.5v-2.8h6.7C299.6,79.8,299.6,107.7,299.6,107.7z M289.1,91.1c-4.1,0-7.3,2.9-7.3,8.5
		c0,5.6,3.3,8.5,7.3,8.5s7.4-2.9,7.4-8.5C296.5,94,293.2,91.1,289.1,91.1z"/>
	<path class="st0" d="M327.7,96.3c-6-1.1-9-2.7-9-8.6c0-4.6,3.9-8.5,10.6-8.5c4,0,6.9,1.8,8.3,4v-3.5h2.8v8.6h-3.6
		c-0.7-3.7-3.3-6-7.4-6c-4.5,0-7.4,2.1-7.4,5.4c0,2.9,1.5,4.1,7.1,5.3l2.8,0.6c6.3,1.3,9,3.6,9,8.5c0,4.5-3.6,8.8-10.3,8.8
		c-3.8,0-7.3-1.1-8.8-4.1v3.5h-3l-0.1-9.1h3.3c0.9,3.7,3.5,6.4,8.3,6.4c4.9,0,7.4-2.5,7.4-5.5c0-2.9-1.6-4.5-7.1-5.5
		C330.4,96.8,327.7,96.3,327.7,96.3z"/>
	<path class="st0" d="M375.6,91.4h-3v-2.8h9.3v2.8h-2.7l-6.7,19.1h-4.6L363,92.6l-4.8,17.9h-4.6l-6.7-19.1h-2.7v-2.8h9.3v2.8h-3.1
		l5.5,15.6l5-18.4h4.4l5,18.4L375.6,91.4L375.6,91.4z"/>
	<path class="st0" d="M403.7,104.2c-1,3.8-4.5,6.7-9.9,6.7c-6.6,0-10.6-4.1-10.6-11.4c0-6.9,4.2-11.4,10.6-11.4
		c6.9,0,11.4,5.3,10.5,13.2h-17.7c0.3,3.4,2.6,6.7,7.2,6.7c3,0,5.3-1.3,6.4-3.8C400.3,104.2,403.7,104.2,403.7,104.2z M401.1,98.4
		c0-4.1-3.1-7.3-7.3-7.3c-4.2,0-7.3,3.2-7.3,7.3H401.1z"/>
	<path class="st0" d="M429.4,107.7h3.5v2.8h-6.6v-3.1c-1.3,1.9-4.1,3.6-7.6,3.6c-6.3,0-10.3-4.9-10.3-11.4c0-6.5,4.1-11.4,10.3-11.4
		c3.3,0,6.2,1.5,7.5,3.6v-9h-3.5v-2.8h6.7C429.4,79.8,429.4,107.7,429.4,107.7z M419,91.1c-4.1,0-7.3,2.9-7.3,8.5
		c0,5.6,3.3,8.5,7.3,8.5c4.1,0,7.4-2.9,7.4-8.5C426.3,94,423,91.1,419,91.1z"/>
	<path class="st0" d="M456.7,104.2c-1,3.8-4.5,6.7-9.9,6.7c-6.6,0-10.6-4.1-10.6-11.4c0-6.9,4.2-11.4,10.6-11.4
		c6.9,0,11.4,5.3,10.5,13.2h-17.7c0.3,3.4,2.6,6.7,7.2,6.7c3,0,5.3-1.3,6.4-3.8C453.3,104.2,456.7,104.2,456.7,104.2z M454.1,98.4
		c0-4.1-3.1-7.3-7.3-7.3c-4.2,0-7.3,3.2-7.3,7.3H454.1z"/>
	<path class="st0" d="M484.5,107.7h3.5v2.8h-10.2v-2.8h3.5v-9.3c0-5.2-3.1-7.3-6.5-7.3c-3.4,0-6.3,2.4-6.3,7.5v9.1h3.5v2.8h-10.2
		v-2.8h3.5V91.4h-3.5v-2.8h6.5v3.1c1.2-1.8,3.7-3.6,7.1-3.6c4.8,0,9.1,2.8,9.1,10.3L484.5,107.7L484.5,107.7z"/>
</g>
</svg>
